Beers Project
…
You can also embed plots, for example:

#Lets answer some of the questions of interest
#How many breweries are present in each state?
#Lets look at the Breweries dataset and analyze the data.Extracting the state and count of Breweries_ID per state

TotBreweries=Breweries%>%group_by(State)%>%summarize(cnt = length(unique(Brew_ID)))%>%arrange(cnt,State)%>%select(State,cnt)

## `summarise()` ungrouping output (override with `.groups` argument)

#Arranging the data in descending order
TotBreweries

## # A tibble: 51 x 2
##    State   cnt
##    <chr> <int>
##  1 DC        1
##  2 ND        1
##  3 SD        1
##  4 WV        1
##  5 AR        2
##  6 DE        2
##  7 MS        2
##  8 NV        2
##  9 AL        3
## 10 KS        3
## # ... with 41 more rows

TotBreweries%>%arrange(desc(cnt))

## # A tibble: 51 x 2
##    State   cnt
##    <chr> <int>
##  1 CO       47
##  2 CA       39
##  3 MI       32
##  4 OR       29
##  5 TX       28
##  6 PA       25
##  7 MA       23
##  8 WA       23
##  9 IN       22
## 10 WI       20
## # ... with 41 more rows
…
